-0.42826	0
-0.38567	0.006897
-0.27419	0.013793
-0.20154	0.02069
-0.15243	0.027586
-0.07269	0.02976
0.065997	0.031865
0.129864	0.038762
0.180107	0.040867
0.202082	0.043041
0.223406	0.045146
0.234678	0.052043
0.260435	0.054148
0.276785	0.056253
0.295884	0.058359
0.303925	0.065255
0.309806	0.072152
0.326554	0.074257
0.354355	0.081154
0.37136	0.083259
0.373242	0.085364
0.385708	0.087538
0.395482	0.089712
0.40166	0.091886
0.456093	0.093991
0.4625	0.096096
0.476581	0.098319
0.476585	0.100424
0.478268	0.102529
0.492601	0.109426
0.498314	0.116322
0.504305	0.123219
0.525719	0.125324
0.566873	0.132221
0.571909	0.134326
0.608089	0.136431
0.637421	0.143328
0.656383	0.145575
0.664459	0.152472
0.680515	0.154577
0.685719	0.156799
0.690353	0.158904
0.702362	0.161078
0.724852	0.163252
0.754649	0.165357
0.760985	0.167463
0.767258	0.169568
0.77047	0.171742
0.794209	0.173847
0.798983	0.175952
0.799364	0.178058
0.807555	0.180231
0.810001	0.182454
0.83365	0.184676
0.842703	0.186781
0.850712	0.188886
0.857976	0.195783
0.869863	0.197957
0.874616	0.200179
0.881665	0.202353
0.885203	0.204575
0.88647	0.206681
0.887685	0.213577
0.894588	0.215799
0.899317	0.217973
0.908014	0.220079
0.92788	0.222184
0.956008	0.224358
0.97486	0.226463
0.998469	0.228568
1.003119	0.230673
1.022862	0.232779
1.029235	0.234953
1.049403	0.237127
1.055915	0.244023
1.063588	0.246128
1.064345	0.248234
1.070109	0.250339
1.074702	0.252513
1.091472	0.254687
1.09594	0.256934
1.100153	0.26383
1.108891	0.265936
1.112393	0.268041
1.125952	0.270146
1.129559	0.272252
1.13249	0.274357
1.133715	0.276579
1.139915	0.278684
1.14633	0.28079
1.159384	0.282895
1.177945	0.285
1.178918	0.287105
1.179347	0.289279
1.180327	0.291453
1.184077	0.293675
1.185938	0.295898
1.197567	0.298003
1.208925	0.300108
1.218094	0.30233
1.23608	0.304504
1.238435	0.306726
1.23945	0.308949
1.25639	0.311196
1.262974	0.31337
1.26739	0.315475
1.279317	0.317697
1.280092	0.319871
1.284943	0.321976
1.292052	0.324199
1.292566	0.331095
1.294201	0.333269
1.295592	0.335374
1.302123	0.342271
1.313844	0.349168
1.315601	0.351273
1.323776	0.353378
1.32669	0.3556
1.326887	0.357847
1.333927	0.360021
1.354964	0.366918
1.360554	0.369092
1.361078	0.371197
1.364291	0.373371
1.370843	0.375545
1.384609	0.377767
1.386031	0.379872
1.388237	0.38212
1.406839	0.384367
1.412011	0.386589
1.420502	0.388836
1.422981	0.39101
1.423804	0.393115
1.446445	0.395221
1.472607	0.397443
1.476248	0.39969
1.482511	0.401912
1.488633	0.404159
1.494926	0.406382
1.501078	0.413278
1.519488	0.415384
1.539936	0.417489
1.541473	0.419663
1.545881	0.426559
1.549387	0.428664
1.559095	0.430912
1.561112	0.433086
1.565366	0.435191
1.567831	0.437413
1.568377	0.439587
1.579289	0.441692
1.580044	0.443914
1.58505	0.446162
1.586912	0.448336
1.588258	0.450441
1.59327	0.452663
1.598709	0.454885
1.598914	0.456991
1.608703	0.459238
1.613398	0.461343
1.621328	0.463448
1.628185	0.465622
1.629714	0.467796
1.638609	0.474693
1.641425	0.476798
1.650187	0.479045
1.65535	0.481267
1.660118	0.483515
1.67161	0.485737
1.695047	0.487911
1.708165	0.490085
1.720018	0.492307
1.720763	0.494412
1.731515	0.501309
1.73726	0.503414
1.74605	0.505588
1.746413	0.507693
1.754271	0.509867
1.762903	0.512041
1.764106	0.514263
1.778616	0.516437
1.789023	0.518659
1.789658	0.520833
1.794789	0.523055
1.808282	0.525161
1.812228	0.527335
1.821384	0.529557
1.825984	0.531779
1.83173	0.534026
1.832676	0.5362
1.841263	0.538305
1.841449	0.540528
1.844066	0.542701
1.844303	0.544807
1.845773	0.546912
1.847008	0.549086
1.85472	0.551191
1.860615	0.553296
1.862538	0.555519
1.865062	0.562415
1.875481	0.564637
1.87775	0.56686
1.883108	0.569107
1.895763	0.571281
1.914659	0.573503
1.916013	0.57575
1.917215	0.577972
1.917337	0.580195
1.919115	0.582417
1.927595	0.584591
1.931025	0.586765
1.931919	0.588987
1.936194	0.591234
1.942155	0.593408
1.949571	0.595513
1.959635	0.597735
1.966821	0.599841
1.967203	0.602015
1.973191	0.604189
1.973699	0.606411
1.975429	0.608516
1.975622	0.610621
1.977277	0.612795
1.977901	0.614969
1.978254	0.617191
1.979324	0.619414
1.985131	0.621661
1.98601	0.623766
1.99653	0.625871
2.014429	0.628045
2.034407	0.630219
2.04164	0.632466
2.048215	0.63464
2.049192	0.636862
2.052613	0.639085
2.057078	0.641332
2.05835	0.643506
2.084345	0.645753
2.100016	0.647975
2.148826	0.650149
2.167047	0.652371
2.182261	0.654619
2.183562	0.656792
2.191608	0.659015
2.196043	0.661262
2.205398	0.663436
2.218652	0.665683
2.219508	0.667905
2.227295	0.670079
2.237678	0.672253
2.239931	0.674358
2.240509	0.676532
2.25445	0.678706
2.25599	0.680953
2.256938	0.683127
2.258726	0.685349
2.259249	0.687455
2.27563	0.689677
2.280625	0.691782
2.28505	0.693956
2.287801	0.696178
2.290492	0.698401
2.295256	0.700623
2.307361	0.70287
2.320116	0.705117
2.324557	0.707339
2.337647	0.709513
2.350829	0.711736
2.351903	0.713983
2.355336	0.71623
2.367534	0.718452
2.37328	0.720699
2.385241	0.722922
2.396028	0.725095
2.407494	0.727318
2.418957	0.729492
2.427335	0.731739
2.436902	0.733961
2.494728	0.736066
2.504704	0.738288
2.514377	0.740511
2.515331	0.742616
2.526136	0.744838
2.531271	0.747085
2.534069	0.749333
2.539722	0.75158
2.560652	0.753827
2.566112	0.756074
2.582429	0.758321
2.583898	0.760569
2.60036	0.762791
2.619488	0.765038
2.620142	0.771934
2.621055	0.774182
2.637791	0.776356
2.642597	0.778529
2.645118	0.780752
2.656352	0.782857
2.661274	0.784962
2.665956	0.787184
2.668358	0.789358
2.669902	0.791606
2.718587	0.793779
2.728958	0.796027
2.747299	0.798274
2.778789	0.800379
2.784049	0.802553
2.786817	0.8048
2.820972	0.807047
2.837324	0.809221
2.871163	0.811444
2.873075	0.813691
2.882297	0.815865
2.892387	0.818112
2.89467	0.820286
2.896838	0.822508
2.899908	0.824755
2.910957	0.827002
2.930511	0.829176
2.932026	0.831282
2.94973	0.833455
2.962859	0.835629
2.968465	0.837852
2.987019	0.840099
2.988451	0.842321
2.993385	0.844543
3.001233	0.84679
3.003119	0.849038
3.003387	0.851285
3.019637	0.853507
3.028187	0.855681
3.051809	0.857855
3.057854	0.860077
3.066957	0.862182
3.07657	0.86443
3.092271	0.866652
3.094561	0.868874
3.095567	0.870979
3.116995	0.873153
3.117956	0.875375
3.154159	0.877549
3.168077	0.879772
3.176876	0.881945
3.1841	0.884168
3.18507	0.886342
3.193297	0.888589
3.224226	0.890811
3.232731	0.893033
3.265203	0.89528
3.281761	0.897528
3.36209	0.899701
3.368445	0.901949
3.376582	0.904196
3.393831	0.90637
3.3975	0.908592
3.400543	0.910839
3.417302	0.913086
3.417983	0.915334
3.434658	0.917581
3.463611	0.919755
3.479546	0.92186
3.479827	0.924107
3.48661	0.926329
3.507777	0.928503
3.512627	0.930725
3.525213	0.932973
3.545269	0.93522
3.602497	0.937467
3.640401	0.939714
3.655644	0.941961
3.668746	0.944135
3.673234	0.946358
3.678626	0.948463
3.743777	0.95071
3.756265	0.952957
3.770578	0.955204
3.804644	0.957452
3.834421	0.959674
3.906571	0.961921
3.934801	0.964168
3.962453	0.966415
4.016866	0.968663
4.028737	0.97091
4.063714	0.973157
4.070244	0.975404
4.149291	0.977626
4.202726	0.979874
4.265251	0.982047
4.267156	0.984295
4.324589	0.986542
4.335333	0.988789
4.38029	0.991011
4.395368	0.993258
4.405901	0.995506
4.682656	0.997753