-3.82883	0
-3.66906	0.006897
-3.12412	0.013793
-3.09483	0.016015
-3.06022	0.018189
-2.83173	0.020273
-2.82557	0.022446
-2.78805	0.024669
-2.78434	0.031565
-2.69552	0.038462
-2.68997	0.045358
-2.66872	0.047442
-2.65788	0.049525
-2.64754	0.051608
-2.62251	0.058505
-2.61429	0.060588
-2.60124	0.067485
-2.58256	0.074381
-2.51827	0.076555
-2.48558	0.083452
-2.48143	0.090348
-2.45889	0.097245
-2.43029	0.099419
-2.42488	0.106315
-2.41754	0.108489
-2.40134	0.110573
-2.36742	0.117469
-2.35405	0.124366
-2.29672	0.12654
-2.28846	0.133436
-2.27047	0.13561
-2.27043	0.137693
-2.2642	0.14459
-2.22762	0.146673
-2.21494	0.148757
-2.20468	0.15084
-2.20302	0.152923
-2.19038	0.155007
-2.15743	0.15709
-2.14563	0.163987
-2.14034	0.170883
-2.13977	0.172966
-2.13233	0.175189
-2.12771	0.177272
-2.11165	0.179355
-2.10178	0.186252
-2.10107	0.188335
-2.09742	0.190557
-2.09595	0.197454
-2.08597	0.199676
-2.06887	0.20176
-2.06491	0.208656
-2.03263	0.210739
-2.02294	0.212962
-2.01963	0.215136
-2.01883	0.21731
-2.00808	0.219483
-2.00763	0.221706
-2.00559	0.228602
-2.00149	0.235499
-1.98507	0.237582
-1.98243	0.239756
-1.98053	0.241978
-1.97989	0.2442
-1.9783	0.246284
-1.96841	0.248367
-1.9644	0.250589
-1.93041	0.252673
-1.91925	0.254756
-1.91491	0.256839
-1.91273	0.258923
-1.89462	0.261006
-1.88087	0.263228
-1.87862	0.265312
-1.86394	0.267395
-1.84446	0.269478
-1.82603	0.271562
-1.82409	0.273735
-1.80991	0.275958
-1.80201	0.278132
-1.79789	0.280306
-1.79381	0.282479
-1.79063	0.284563
-1.7841	0.286785
-1.78155	0.293682
-1.77127	0.295855
-1.77125	0.297939
-1.76247	0.300022
-1.75618	0.302105
-1.74958	0.304189
-1.74703	0.311085
-1.72576	0.313308
-1.7241	0.315481
-1.71528	0.317704
-1.71321	0.319787
-1.69364	0.321961
-1.69243	0.324044
-1.68272	0.326128
-1.68259	0.32835
-1.68023	0.330433
-1.6784	0.332517
-1.67678	0.3346
-1.66916	0.341496
-1.6635	0.34367
-1.65798	0.345893
-1.65752	0.348066
-1.65357	0.35015
-1.64623	0.352233
-1.6449	0.354316
-1.63998	0.3564
-1.62993	0.358483
-1.62974	0.360657
-1.6201	0.36274
-1.6191	0.364824
-1.61897	0.366907
-1.61356	0.369081
-1.60481	0.371164
-1.5718	0.373386
-1.56862	0.375609
-1.56388	0.377692
-1.55812	0.379914
-1.55797	0.381998
-1.5541	0.384081
-1.55277	0.386164
-1.54788	0.393061
-1.5475	0.395283
-1.54684	0.397505
-1.54269	0.399679
-1.53866	0.401853
-1.53846	0.403936
-1.53825	0.40611
-1.53173	0.408333
-1.53083	0.410416
-1.53045	0.41259
-1.5268	0.414812
-1.5041	0.416986
-1.50262	0.41916
-1.49893	0.421382
-1.49712	0.423465
-1.49522	0.425639
-1.49177	0.427813
-1.48016	0.429897
-1.47794	0.43207
-1.46531	0.434293
-1.46054	0.436515
-1.45574	0.438689
-1.44526	0.440911
-1.44425	0.443133
-1.43931	0.445217
-1.43024	0.447391
-1.4242	0.449564
-1.42086	0.451787
-1.42013	0.454009
-1.41043	0.456183
-1.39353	0.458266
-1.38849	0.460488
-1.38348	0.462572
-1.37738	0.464794
-1.37674	0.467016
-1.36706	0.469238
-1.36621	0.471322
-1.36075	0.473405
-1.35803	0.475488
-1.35121	0.477711
-1.34102	0.479933
-1.33325	0.482107
-1.3318	0.48419
-1.32955	0.486364
-1.32748	0.488538
-1.32558	0.490712
-1.31804	0.492795
-1.305	0.494969
-1.28561	0.497191
-1.28224	0.499413
-1.28105	0.501587
-1.27912	0.503761
-1.27774	0.505845
-1.27502	0.508019
-1.2717	0.510241
-1.27004	0.512415
-1.25054	0.514498
-1.2457	0.516672
-1.23667	0.518846
-1.22463	0.520929
-1.2202	0.523013
-1.21629	0.525186
-1.20948	0.52727
-1.20859	0.529353
-1.20233	0.531575
-1.19858	0.533798
-1.1948	0.540694
-1.16638	0.542916
-1.1575	0.545
-1.15265	0.547222
-1.14288	0.549444
-1.13284	0.551666
-1.13131	0.55375
-1.1244	0.555833
-1.12298	0.558055
-1.1189	0.560139
-1.11583	0.562312
-1.11207	0.564535
-1.10801	0.566709
-1.10699	0.568931
-1.10324	0.571153
-1.09585	0.573327
-1.08739	0.57541
-1.08475	0.577632
-1.07791	0.579806
-1.06993	0.58198
-1.05832	0.584203
-1.05427	0.586376
-1.04807	0.58846
-1.04595	0.590682
-1.03157	0.592856
-1.02879	0.595078
-1.02812	0.5973
-1.02238	0.599474
-1.02116	0.601558
-1.01713	0.60378
-1.01557	0.606002
-1.0111	0.608176
-0.99763	0.610398
-0.98743	0.612572
-0.98575	0.614746
-0.98159	0.616968
-0.98114	0.61919
-0.97939	0.621413
-0.97691	0.623635
-0.94478	0.625857
-0.92901	0.628079
-0.92421	0.630253
-0.91237	0.632475
-0.89344	0.634559
-0.88641	0.636642
-0.88495	0.638864
-0.88175	0.640948
-0.8554	0.643122
-0.85459	0.645296
-0.85359	0.647518
-0.84564	0.649601
-0.83536	0.656498
-0.83272	0.65872
-0.82232	0.660894
-0.81438	0.663116
-0.8086	0.665338
-0.8038	0.66756
-0.79667	0.669783
-0.78497	0.672005
-0.76674	0.674227
-0.72782	0.676449
-0.72234	0.678672
-0.72149	0.680845
-0.71384	0.683019
-0.70748	0.685193
-0.69256	0.687416
-0.68197	0.689589
-0.67993	0.691763
-0.67703	0.693986
-0.67117	0.696069
-0.66131	0.698291
-0.66025	0.700513
-0.65362	0.702736
-0.64018	0.704909
-0.63824	0.706993
-0.63746	0.709215
-0.63445	0.711437
-0.6339	0.713659
-0.63063	0.715882
-0.63029	0.718104
-0.61903	0.720278
-0.61775	0.722361
-0.60936	0.724583
-0.60734	0.726757
-0.59174	0.72898
-0.57952	0.731202
-0.57536	0.733424
-0.57455	0.735646
-0.57417	0.737868
-0.56086	0.740091
-0.53414	0.742174
-0.53121	0.744348
-0.52904	0.74657
-0.52633	0.748792
-0.51556	0.751015
-0.50913	0.753237
-0.50133	0.755459
-0.49915	0.757633
-0.47457	0.759855
-0.44673	0.762029
-0.43123	0.764251
-0.43029	0.766473
-0.42307	0.768557
-0.4211	0.770779
-0.41818	0.773001
-0.4006	0.775175
-0.39995	0.777259
-0.38733	0.779432
-0.38456	0.781655
-0.38318	0.783829
-0.37955	0.786051
-0.37624	0.788225
-0.37423	0.790447
-0.37056	0.792621
-0.37001	0.794843
-0.36239	0.797065
-0.36027	0.799287
-0.35556	0.80151
-0.3365	0.803732
-0.33059	0.805954
-0.30261	0.808037
-0.29795	0.81026
-0.29126	0.812482
-0.28873	0.814656
-0.27868	0.816878
-0.26954	0.8191
-0.25091	0.821274
-0.24429	0.823496
-0.23695	0.82558
-0.22578	0.827802
-0.21672	0.830024
-0.21352	0.832246
-0.20682	0.834469
-0.20249	0.836691
-0.19112	0.838913
-0.18251	0.841087
-0.17068	0.843309
-0.17019	0.845393
-0.16027	0.847615
-0.15467	0.849837
-0.1305	0.852059
-0.12403	0.854281
-0.12327	0.856504
-0.11508	0.858726
-0.08342	0.860948
-0.08156	0.863122
-0.0771	0.865344
-0.05707	0.867566
-0.05344	0.869789
-0.04477	0.872011
-0.04325	0.874233
-0.03217	0.876455
-0.02968	0.878678
-0.01725	0.8809
-0.01031	0.883074
0.005702	0.885296
0.011264	0.887518
0.024324	0.88974
0.027538	0.891963
0.046753	0.894185
0.047074	0.896407
0.055341	0.898629
0.05932	0.900851
0.100105	0.903074
0.114758	0.905296
0.132188	0.907518
0.144163	0.90974
0.14458	0.911914
0.165659	0.914137
0.188291	0.916359
0.195759	0.918581
0.201152	0.920803
0.211329	0.923025
0.21567	0.925248
0.242359	0.92747
0.308331	0.929644
0.310923	0.931866
0.317648	0.934088
0.323078	0.93631
0.34086	0.938533
0.375579	0.940616
0.376808	0.942838
0.388409	0.94506
0.411143	0.947283
0.421088	0.949457
0.462125	0.951679
0.468786	0.953901
0.486305	0.955984
0.498811	0.958158
0.506137	0.96038
0.507304	0.962603
0.534022	0.964777
0.536116	0.966999
0.567551	0.969221
0.569337	0.971443
0.594964	0.973666
0.655632	0.975888
0.684467	0.977971
0.71918	0.980145
0.775753	0.982319
0.930068	0.984493
0.933433	0.986715
1.049824	0.988889
1.060331	0.991111
1.198282	0.993333
1.413656	0.995556
1.546029	0.997778