UCP2_Hs01075224_g1	SMARCD3_Hs01088251_g1
MAP7D3_Hs00226257_m1	SMARCD3_Hs01088251_g1
STT3A_Hs00967491_m1	SMARCD3_Hs01088251_g1
UCP2_Hs01075224_g1	RP11-295G20.2_Hs01373568_m1
MAP7D3_Hs00226257_m1	RP11-295G20.2_Hs01373568_m1
STT3A_Hs00967491_m1	RP11-295G20.2_Hs01373568_m1