-8.008403	0
-7.996363	0.006896552
-7.958584	0.0137931
-7.596529	0.02068966
-7.52332	0.02291188
-7.501467	0.02980843
-7.462357	0.03203065
-7.408689	0.0389272
-7.381753	0.04101054
-7.3782	0.04309387
-7.368912	0.04999042
-7.353369	0.05688697
-7.347908	0.0591092
-7.339102	0.06119253
-7.301063	0.06327586
-7.258085	0.06544978
-7.246167	0.06753311
-7.221438	0.06970702
-7.215947	0.07179035
-7.209538	0.07387369
-7.197936	0.07595702
-7.196234	0.07813093
-7.176114	0.08021427
-7.148965	0.0822976
-7.123629	0.08919415
-7.118669	0.09127749
-7.109173	0.09349971
-7.108612	0.09558304
-7.106969	0.09766638
-7.095568	0.09984029
-7.084329	0.1020142
-7.065937	0.1040975
-7.061177	0.1061809
-7.059024	0.1082642
-7.052942	0.1103475
-7.049929	0.1124309
-7.044953	0.1146048
-7.041858	0.1166881
-7.04106	0.1235847
-7.027016	0.1257586
-7.016715	0.1278419
-7.013603	0.1299252
-7.011898	0.1368218
-7.005826	0.1389051
-6.998268	0.1458017
-6.985542	0.1479756
-6.962971	0.1501978
-6.956031	0.15242
-6.949207	0.154594
-6.937121	0.1568162
-6.933679	0.1589901
-6.932635	0.161164
-6.928221	0.1633379
-6.913312	0.1655601
-6.908751	0.167734
-6.906102	0.1699563
-6.903914	0.1720396
-6.893864	0.1789362
-6.891178	0.1811101
-6.889312	0.183284
-6.88468	0.1853673
-6.868945	0.1875412
-6.868516	0.1896246
-6.854531	0.1917985
-6.853967	0.1938818
-6.842823	0.2007784
-6.841718	0.2030006
-6.839031	0.2098971
-6.837627	0.212071
-6.837247	0.2141544
-6.836038	0.2162377
-6.834189	0.2184116
-6.82203	0.2253082
-6.806664	0.2273915
-6.793463	0.2342881
-6.789342	0.2365103
-6.786162	0.2385936
-6.775221	0.2454902
-6.757584	0.2476641
-6.75158	0.2545606
-6.735367	0.2614572
-6.725031	0.2635405
-6.714547	0.2656239
-6.712525	0.2677072
-6.706013	0.2699294
-6.704737	0.2720127
-6.700628	0.274235
-6.692668	0.2811315
-6.690937	0.2833054
-6.666918	0.2853888
-6.66632	0.2875627
-6.663085	0.289646
-6.627056	0.2918199
-6.619072	0.2940421
-6.592542	0.2961255
-6.58954	0.2982088
-6.588708	0.3002921
-6.583889	0.3024661
-6.576072	0.3046883
-6.576018	0.3069105
-6.57269	0.3091327
-6.56859	0.3112161
-6.566296	0.3132994
-6.559415	0.3155216
-6.543598	0.3176049
-6.541861	0.3196883
-6.539036	0.3265848
-6.530493	0.3286682
-6.527965	0.3355647
-6.513595	0.3376481
-6.51218	0.3397314
-6.509695	0.3419536
-6.500442	0.3441758
-6.492929	0.3463981
-6.491932	0.3484814
-6.484461	0.3505647
-6.476777	0.3574613
-6.474731	0.3596835
-6.469858	0.3617668
-6.460847	0.363989
-6.455458	0.3662113
-6.454438	0.3731078
-6.453511	0.37533
-6.449758	0.3775523
-6.443679	0.3797262
-6.433672	0.3819001
-6.424781	0.3887966
-6.402925	0.39088
-6.399423	0.3930539
-6.397666	0.3952278
-6.397105	0.3973111
-6.396875	0.3995334
-6.384807	0.4016167
-6.361658	0.4037
-6.356777	0.4057834
-6.3433	0.4078667
-6.341934	0.4147632
-6.338418	0.4169372
-6.333413	0.4191594
-6.325538	0.4213816
-6.309957	0.4235555
-6.29794	0.4257294
-6.292516	0.4279033
-6.29076	0.4299867
-6.285853	0.4322089
-6.282972	0.4342922
-6.280862	0.4364661
-6.279327	0.4386401
-6.277683	0.4408623
-6.272203	0.4430845
-6.268597	0.4451678
-6.266841	0.4473901
-6.2573	0.449564
-6.249247	0.4517862
-6.239101	0.4539601
-6.23549	0.4560434
-6.23355	0.4582657
-6.232546	0.4604396
-6.232077	0.4626618
-6.226407	0.4647451
-6.225501	0.466919
-6.214785	0.4691413
-6.211671	0.4713152
-6.199046	0.4733985
-6.195942	0.4756207
-6.187799	0.4777041
-6.187582	0.479878
-6.180012	0.4819613
-6.175968	0.4840446
-6.175153	0.4862186
-6.159651	0.4883925
-6.154269	0.495289
-6.152679	0.4974629
-6.150379	0.4996852
-6.146139	0.5019074
-6.126946	0.5041296
-6.126449	0.5063518
-6.120741	0.5085257
-6.11545	0.510748
-6.101658	0.5129219
-6.097513	0.5151441
-6.09722	0.5172274
-6.095307	0.5194497
-6.091253	0.5216236
-6.063703	0.5237069
-6.062215	0.5259291
-6.061674	0.5280125
-6.053784	0.5300958
-6.052206	0.5321791
-6.039265	0.5344013
-6.034243	0.5365753
-6.031444	0.5387492
-6.008272	0.5409714
-6.00817	0.5431936
-6.004612	0.5452769
-5.991299	0.5474509
-5.986816	0.5495342
-5.985177	0.5516175
-5.983657	0.5537914
-5.976137	0.5558748
-5.972659	0.5580487
-5.970067	0.5602226
-5.969751	0.5623059
-5.968153	0.5645282
-5.963703	0.5666115
-5.950427	0.5687854
-5.921532	0.5710076
-5.918109	0.5732298
-5.916673	0.5754038
-5.916007	0.5775777
-5.914868	0.579661
-5.904642	0.5818832
-5.900192	0.5841054
-5.898671	0.5863277
-5.897837	0.588411
-5.89676	0.5905849
-5.893585	0.5928071
-5.88252	0.5950294
-5.876974	0.5972516
-5.874773	0.5994738
-5.866997	0.601696
-5.863745	0.6039182
-5.845978	0.6060016
-5.844579	0.6080849
-5.834729	0.6102588
-5.827712	0.6124811
-5.824167	0.6147033
-5.815007	0.6168772
-5.799831	0.6190994
-5.779512	0.6212733
-5.779379	0.6234955
-5.76971	0.6257178
-5.760014	0.62794
-5.756558	0.6301139
-5.726325	0.6322878
-5.719045	0.6344617
-5.703851	0.6366356
-5.682221	0.6388579
-5.67481	0.6410801
-5.671515	0.6431634
-5.670605	0.6453856
-5.664138	0.6475596
-5.661696	0.6497818
-5.656904	0.652004
-5.648092	0.6542262
-5.638765	0.6564484
-5.634423	0.6586707
-5.616478	0.660754
-5.613621	0.6629762
-5.609095	0.6650596
-5.606668	0.6672818
-5.602745	0.6694557
-5.598722	0.6716296
-5.596427	0.6738518
-5.595745	0.676074
-5.585362	0.6782963
-5.583079	0.6803796
-5.571573	0.6826018
-5.569914	0.684824
-5.569528	0.6870463
-5.565431	0.6892202
-5.556164	0.6961167
-5.553907	0.698339
-5.553906	0.7005612
-5.552862	0.7027834
-5.551543	0.7049573
-5.537705	0.7070406
-5.536837	0.7092146
-5.536766	0.7112979
-5.521683	0.7135201
-5.489781	0.715694
-5.489575	0.7178679
-5.484194	0.7200419
-5.481163	0.7222641
-5.474605	0.7244863
-5.45771	0.7266602
-5.455078	0.7288341
-5.443268	0.7310563
-5.436963	0.7332786
-5.43629	0.7355008
-5.433208	0.7376747
-5.426989	0.7398969
-5.420722	0.7419803
-5.400072	0.7442025
-5.395573	0.7464247
-5.390736	0.748508
-5.387774	0.7507303
-5.382405	0.7529525
-5.374057	0.7551264
-5.353352	0.7572097
-5.350415	0.759432
-5.344231	0.7616542
-5.340658	0.7638281
-5.32582	0.766002
-5.324514	0.7682242
-5.317586	0.7704464
-5.29949	0.7726687
-5.285386	0.7748909
-5.283352	0.7771131
-5.272312	0.7793353
-5.271852	0.7815576
-5.267971	0.7837315
-5.255005	0.7859537
-5.254637	0.7881759
-5.236645	0.7903981
-5.224014	0.7926204
-5.215605	0.7948426
-5.2113	0.7970648
-5.209567	0.799287
-5.209133	0.8013704
-5.206736	0.8035926
-5.206668	0.8058148
-5.20618	0.8079887
-5.205641	0.8102109
-5.185355	0.8124332
-5.176679	0.8146554
-5.174385	0.8168776
-5.174247	0.8190998
-5.171805	0.821322
-5.168048	0.8235443
-5.164649	0.8257665
-5.1539	0.8279887
-5.151663	0.8302109
-5.138391	0.8324332
-5.133862	0.8346071
-5.123636	0.836781
-5.121447	0.8388643
-5.111117	0.8409477
-5.110307	0.8431216
-5.107465	0.8453438
-5.095429	0.8475177
-5.076772	0.8497399
-5.067534	0.8519621
-5.028845	0.8541361
-5.022036	0.8563583
-5.016939	0.8585805
-5.010638	0.8608027
-4.983577	0.8630249
-4.978335	0.8652472
-4.940012	0.8721437
-4.927505	0.8743659
-4.907484	0.8765882
-4.904807	0.8788104
-4.893159	0.8810326
-4.889633	0.8832548
-4.888138	0.8853382
-4.885725	0.8875604
-4.870588	0.8897826
-4.868352	0.8919565
-4.864283	0.8941787
-4.863364	0.896401
-4.854053	0.8985749
-4.830407	0.9007971
-4.75568	0.9028804
-4.748733	0.9051027
-4.746257	0.9073249
-4.737726	0.9094988
-4.73696	0.9116727
-4.734714	0.9138949
-4.723505	0.9161171
-4.723104	0.9183394
-4.71683	0.9205616
-4.709344	0.9227838
-4.704783	0.925006
-4.695515	0.9272283
-4.684999	0.9294505
-4.661998	0.9315338
-4.615449	0.933756
-4.575906	0.9359783
-4.560018	0.9382005
-4.541981	0.9404227
-4.511034	0.9426449
-4.453725	0.9448188
-4.445385	0.9469928
-4.438819	0.9490761
-4.418056	0.9512983
-4.408878	0.9535205
-4.395238	0.9557428
-4.384081	0.957965
-4.330275	0.9601872
-4.317992	0.9624094
-4.308031	0.9646316
-4.266221	0.9668539
-4.183275	0.9690761
-4.109122	0.9712983
-4.060415	0.9735205
-4.027043	0.9756944
-3.969642	0.9779167
-3.939631	0.9801389
-3.825553	0.9822222
-3.805913	0.9844444
-3.788521	0.9866667
-3.755386	0.9888889
-3.737547	0.9911111
-3.403137	0.9933333
-3.102578	0.9955556
-2.995776	0.9977778