-4.266762	0
-3.904122	0.00304878
-3.573222	0.006097561
-3.489608	0.009146341
-3.468508	0.01219512
-3.452419	0.0152439
-3.446063	0.01829268
-3.431294	0.02134146
-3.430141	0.02439024
-3.301632	0.02743902
-3.282822	0.0304878
-3.250112	0.03353659
-3.248783	0.03658537
-3.119916	0.03963415
-3.096199	0.04840608
-2.892132	0.05145486
-2.856061	0.05450364
-2.855005	0.05755242
-2.816832	0.0606012
-2.814228	0.06364998
-2.809291	0.06669876
-2.80449	0.06974754
-2.792711	0.07279632
-2.774778	0.0758451
-2.77462	0.07889388
-2.774207	0.08194266
-2.72136	0.08499144
-2.696099	0.08804022
-2.652286	0.091089
-2.538963	0.09413778
-2.487804	0.09718656
-2.482473	0.1002353
-2.470412	0.1090073
-2.441888	0.1120561
-2.414164	0.1151048
-2.410223	0.1181536
-2.406961	0.1212024
-2.357452	0.1242512
-2.353874	0.1330231
-2.34588	0.1360719
-2.341899	0.1391207
-2.324144	0.1421694
-2.319691	0.1452182
-2.310442	0.148267
-2.295751	0.1513158
-2.278922	0.1543646
-2.272809	0.1631365
-2.257346	0.1661853
-2.251528	0.1692341
-2.250538	0.1722828
-2.237552	0.1810548
-2.235698	0.1841036
-2.226611	0.1871523
-2.208204	0.1902011
-2.204347	0.1932499
-2.20289	0.1962987
-2.197178	0.1993475
-2.170204	0.2023962
-2.151305	0.205445
-2.136723	0.2084938
-2.130808	0.2115426
-2.126887	0.2145914
-2.121487	0.2176401
-2.111937	0.2206889
-2.084112	0.2237377
-2.074905	0.2267865
-2.074713	0.2298353
-2.0711	0.232884
-2.034337	0.241656
-2.025836	0.2447047
-2.01479	0.2477535
-2.001066	0.2508023
-1.964335	0.2538511
-1.954575	0.2568999
-1.941236	0.2599487
-1.916665	0.2629974
-1.902765	0.2660462
-1.860695	0.269095
-1.848673	0.2721438
-1.825251	0.2751926
-1.815746	0.2782413
-1.811847	0.2812901
-1.811643	0.290062
-1.786929	0.2931108
-1.779132	0.2961596
-1.77287	0.2992084
-1.750897	0.3022572
-1.748505	0.3053059
-1.733048	0.3083547
-1.732637	0.3114035
-1.726652	0.3201754
-1.710977	0.3289474
-1.706105	0.3319961
-1.705692	0.3350449
-1.703398	0.3380937
-1.702893	0.3468656
-1.699562	0.3499144
-1.694578	0.3529632
-1.692261	0.3617351
-1.688163	0.3647839
-1.678061	0.3678327
-1.656321	0.3766046
-1.651935	0.3796534
-1.650493	0.3884253
-1.648093	0.3914741
-1.613233	0.3945229
-1.601066	0.3975717
-1.594166	0.4006205
-1.587365	0.4036692
-1.581441	0.406718
-1.578353	0.4097668
-1.564822	0.4185387
-1.557524	0.4215875
-1.546176	0.4246363
-1.526742	0.4276851
-1.522913	0.4307338
-1.519313	0.4337826
-1.515878	0.4368314
-1.512128	0.4398802
-1.502513	0.442929
-1.465267	0.4459777
-1.462207	0.4547497
-1.439418	0.4577985
-1.439064	0.4608472
-1.437244	0.463896
-1.389334	0.472668
-1.376538	0.4814399
-1.360411	0.4844887
-1.354323	0.4875374
-1.351956	0.4963094
-1.349983	0.4993582
-1.322195	0.5024069
-1.317367	0.5054557
-1.304341	0.5085045
-1.301915	0.5115533
-1.294849	0.5203252
-1.293383	0.5290971
-1.289926	0.5378691
-1.285971	0.5409178
-1.285969	0.5439666
-1.272541	0.5527386
-1.260162	0.5557873
-1.233337	0.5588361
-1.226268	0.5618849
-1.210482	0.5649337
-1.172626	0.5737056
-1.167677	0.5824775
-1.142089	0.5855263
-1.13872	0.5885751
-1.112029	0.5916239
-1.098224	0.5946727
-1.094503	0.6034446
-1.079727	0.6064934
-1.02027	0.6095421
-1.017933	0.6125909
-1.0006	0.6156397
-1.000071	0.6244116
-0.9757094	0.6331836
-0.9355014	0.6419555
-0.9282428	0.6450043
-0.9237383	0.6480531
-0.9183159	0.6511018
-0.9157205	0.6541506
-0.9143944	0.6571994
-0.9072016	0.6602482
-0.89902	0.663297
-0.8942869	0.6663457
-0.8804317	0.6693945
-0.8754428	0.6781665
-0.8605167	0.6812152
-0.8263076	0.6899872
-0.8144169	0.6987591
-0.8076434	0.707531
-0.7712065	0.716303
-0.7485294	0.7193517
-0.7373879	0.7281237
-0.7236798	0.7311724
-0.7123097	0.7342212
-0.7000915	0.7429932
-0.696882	0.7517651
-0.6882175	0.7548139
-0.6864846	0.7578626
-0.6804532	0.7609114
-0.6804396	0.7639602
-0.6526054	0.767009
-0.6438817	0.7700578
-0.6337045	0.7731065
-0.6085797	0.7761553
-0.5071886	0.7792041
-0.4254489	0.787976
-0.4052854	0.796748
-0.2571065	0.7997967
-0.2006385	0.8028455
-0.1799491	0.8058943
-0.1252531	0.8089431
-0.08057846	0.8119919
0.007699488	0.8207638
0.04189028	0.8238126
0.08135458	0.8325845
0.2101531	0.8356333
0.3728216	0.8386821
0.4731102	0.847454
0.5734762	0.8505028
0.6348933	0.8535516
0.8499128	0.8623235
1.005702	0.8710954
1.070146	0.8798674
1.090074	0.8886393
1.13166	0.8974112
1.157755	0.9061831
1.273086	0.9149551
1.379731	0.923727
1.469716	0.9324989
1.898259	0.9412709
1.979775	0.9500428
2.150658	0.9530916
2.22947	0.9618635
2.63822	0.9649123
3.122758	0.9736842
3.221994	0.9824561
4.53438	0.9912281
